{
  "images" : [
    {
      "idiom" : "iphone",
      "scale" : "1x"
    },
    {
      "idiom" : "iphone",
      "filename" : "gen-feedback@2x~iphone.png",
      "scale" : "2x"
    },
    {
      "idiom" : "iphone",
      "filename" : "gen-feedback@3x~iphone.png",
      "scale" : "3x"
    },
    {
      "idiom" : "ipad",
      "filename" : "gen-feedback~ipad.png",
      "scale" : "1x"
    },
    {
      "idiom" : "ipad",
      "filename" : "gen-feedback@2x~ipad.png",
      "scale" : "2x"
    }
  ],
  "info" : {
    "version" : 1,
    "author" : "xcode"
  }
}